…
``` r
#looking at the top wineries in california according to fruity TF-IDF weights
data_cal %>%
  group_by(winery) %>%
  summarize(fruit_measure = mean(fruit)) %>%
  filter( fruit_measure > 0) %>%
  arrange(desc(fruit_measure))
```

    ## # A tibble: 92 x 2
    ##    winery             fruit_measure
    ##    <fct>                      <dbl>
    ##  1 Zagan's Fire              0.151 
    ##  2 Leese-Fitch               0.129 
    ##  3 Fleur                     0.123 
    ##  4 Belle Ambiance            0.108 
    ##  5 Stephen Vincent           0.104 
    ##  6 Bread & Butter            0.101 
    ##  7 Gnarly Head               0.101 
    ##  8 Cartlidge & Browne        0.0968
    ##  9 Michael Pozzan            0.0968
    ## 10 Sonoma Creek              0.0935
    ## # … with 82 more rows
